{
    "columns_available": {
        "1": {
            "presets": {
                "performance": "Performance",
                "delivery": "Delivery",
                "engagement": "Engagement",
                "video_engagement": "Video Engagement",
                "app_engagement": "App Engagement",
                "carousel_engagement": "Carousel Engagement",
                "performance_and_clicks": "Performance and Clicks",
                "crosss-device": "Cross-Device",
                "messenger_engagement": "Messenger Engagement",
                "offline_conversions": "Offline Conversions"
            },
            "columns": {
                "delivery": {
                    "field": "delivery",
                    "name": "Delivery",
                    "summary_label": "Speed",
                    "legend": "The current status of your campaign, advert set or advert delivery.",
                    "width": 100
                },
                "results": {
                    "field": "results",
                    "name": "Results",
                    "summary_label": "Total",
                    "legend": "The number of times that your advert achieved an outcome, based on the objective you selected.",
                    "width": 100
                },
                "reach": {
                    "field": "reach",
                    "name": "Reach",
                    "summary_label": "People",
                    "legend": "The number of people who saw your adverts at least once. Reach is different to impressions, which may include multiple views of your adverts by the same people.",
                    "width": 100
                },
                "cost": {
                    "field": "cost",
                    "name": "Cost",
                    "summary_label": "Total",
                    "legend": "The average cost per result from your adverts.",
                    "width": 100
                },
                "amount_spent": {
                    "field": "amount_spent",
                    "name": "Amount Spent",
                    "summary_label": "Total Spent",
                    "legend": "The estimated total amount of money you've spent on your campaign, ad set or ad during its schedule.",
                    "width": 100
                },
                "ends": {
                    "field": "ends",
                    "name": "Ends",
                    "summary_label": "",
                    "legend": "The date that your campaign ended or is scheduled to end. A campaign's end date is based on the schedule that you chose in the campaign's advert set.",
                    "width": 100
                },
                "link_clicks": {
                    "field": "link_clicks",
                    "name": "Link Clicks",
                    "summary_label": "Total",
                    "legend": "The number of clicks on links to selected destinations or experiences, on or off Facebook-owned properties.",
                    "width": 100
                },
                "purchase": {
                    "field": "purchase",
                    "name": "Purchase",
                    "summary_label": "Total",
                    "legend": "The number of purchase events tracked by the pixel on your website and attributed to your adverts.",
                    "width": 100
                },
                "mobile_app_purchases": {
                    "field": "mobile_app_purchases",
                    "name": "Mobile App Purchase",
                    "summary_label": "Total",
                    "legend": "The number of purchases made in your mobile app that were recorded as app events and attributed to your adverts.",
                    "width": 100
                },
                "frequency": {
                    "field": "frequency",
                    "name": "Frequency",
                    "summary_label": "Total",
                    "legend": "The average number of times each person saw your advert.",
                    "width": 100
                },
                "cost_per_k_people": {
                    "field": "cost_per_k_people",
                    "name": "Cost per 1k people reached",
                    "summary_label": "Total",
                    "legend": "The average cost to reach 1,000 people.",
                    "width": 100
                },
                "impressions": {
                    "field": "impressions",
                    "name": "Impressions",
                    "summary_label": "Total",
                    "legend": "The number of times your adverts were viewed.",
                    "width": 100
                },
                "cpm_per_k_impressions": {
                    "field": "cpm_per_k_impressions",
                    "name": "CPM (cost per 1k impressions)",
                    "summary_label": "Total",
                    "legend": "The average cost for 1,000 impressions.",
                    "width": 100
                },
                "people_taking_action": {
                    "field": "people_taking_action",
                    "name": "People taking action",
                    "summary_label": "Total",
                    "legend": "The number of people who took an action that was attributed to your adverts.",
                    "width": 100
                },
                "post_reactions": {
                    "field": "post_reactions",
                    "name": "Post reactions",
                    "summary_label": "Total",
                    "legend": "The number of reactions on your adverts (or on all posts, in some cases). The reactions button on an advert allows people to share different reactions to its content: Like, Love, Haha, Wow, Sad or Angry.",
                    "width": 100
                },
                "post_comments": {
                    "field": "post_comments",
                    "name": "Post Comments",
                    "summary_label": "Total",
                    "legend": "The number of comments on your adverts (or all posts, in some cases).",
                    "width": 100
                },
                "post_shares": {
                    "field": "post_shares",
                    "name": "Post shares",
                    "summary_label": "Total",
                    "legend": "The number of comments on your adverts (or all posts, in some cases).",
                    "width": 100
                },
                "page_likes": {
                    "field": "page_likes",
                    "name": "Page likes",
                    "summary_label": "Total",
                    "legend": "The number of likes of your Facebook Page attributed to your adverts.",
                    "width": 100
                },
                "three_second_video_views": {
                    "field": "three_second_video_views",
                    "name": "Three-second Video views",
                    "summary_label": "Total",
                    "legend": "The number of times your video was watched for an aggregate of at least three seconds, or for nearly its total length, whichever occurs first.",
                    "width": 100
                },
                "ten_second_video_views": {
                    "field": "ten_second_video_views",
                    "name": "Ten-second video views",
                    "summary_label": "Total",
                    "legend": "The number of times your video was watched for an aggregate of at least ten seconds, or for nearly its total length, whichever occurred first.",
                    "width": 100
                },
                "cost_per_ten_second_video_view": {
                    "field": "cost_per_ten_second_video_view",
                    "name": "Cost per ten-second video view",
                    "summary_label": "Total",
                    "legend": "The average cost for each ten-second video view.",
                    "width": 100
                },
                "video_percentage_watched": {
                    "field": "video_percentage_watched",
                    "name": "Video percentage watched",
                    "summary_label": "Total",
                    "legend": "The average percentage of your video that people watched.",
                    "width": 100
                },
                "video_watches_at_25_perc": {
                    "field": "video_watches_at_25_perc",
                    "name": "Video watches at 25%",
                    "summary_label": "Total",
                    "legend": "The number of times your video was watched at 25% of its length, including when viewers skipped to this point.",
                    "width": 100
                },
                "video_watches_at_50_perc": {
                    "field": "video_watches_at_50_perc",
                    "name": "Video watches at 50%",
                    "summary_label": "Total",
                    "legend": "The number of times your video was watched at 50% of its length, including when viewers skipped to this point.",
                    "width": 100
                },
                "video_watches_at_75_perc": {
                    "field": "video_watches_at_75_perc",
                    "name": "Video watches at 75%",
                    "summary_label": "Total",
                    "legend": "The number of times your video was watched at 75% of its length, including when viewers skipped to this point.",
                    "width": 100
                },
                "video_watches_at_95_perc": {
                    "field": "video_watches_at_95_perc",
                    "name": "Video watches at 95%",
                    "summary_label": "Total",
                    "legend": "The number of times your video was watched at 95% of its length, including when viewers skipped to this point.",
                    "width": 100
                },
                "video_watches_at_100_perc": {
                    "field": "video_watches_at_100_perc",
                    "name": "Video watches at 100%",
                    "summary_label": "Total",
                    "legend": "The number of times your video was watched at 100% of its length, including when viewers skipped to this point.",
                    "width": 100
                },
                "mobile_app_installs": {
                    "field": "mobile_app_installs",
                    "name": "Mobile app installs",
                    "summary_label": "Total",
                    "legend": "If your mobile app is connected to Facebook (through the Facebook SDK, mobile measurement partner or other connection) and you've chosen to report on this app event, this metric counts when the app event is reported and is attributed to your adverts.",
                    "width": 100
                },
                "mobile_app_actions": {
                    "field": "mobile_app_actions",
                    "name": "Mobile app Actions",
                    "summary_label": "Total",
                    "legend": "The number of actions in your mobile app that were recorded as app events and attributed to your adverts.",
                    "width": 100
                },
                "cost_per_lead": {
                    "field": "cost_per_lead",
                    "name": "Cost per lead (conversion tracking pixel)",
                    "summary_label": "Total",
                    "legend": "The average cost for each lead (conversion tracking pixel).",
                    "width": 100
                },
                "cost_per_mobile_app_install": {
                    "field": "cost_per_mobile_app_install",
                    "name": "Cost per mobile app install",
                    "summary_label": "Total",
                    "legend": "The average cost for each mobile app install.",
                    "width": 100
                },
                "cost_per_mobile_app_action": {
                    "field": "cost_per_mobile_app_action",
                    "name": "Cost per mobile app action",
                    "summary_label": "Total",
                    "legend": "The average cost per mobile app action.",
                    "width": 100
                },
                "app_installs": {
                    "field": "app_installs",
                    "name": "App Installs",
                    "summary_label": "Total",
                    "legend": "The number of desktop app installs that were recorded as app events and attributed to your adverts.",
                    "width": 100
                },
                "app_engagement": {
                    "field": "app_engagement",
                    "name": "App Engagement",
                    "summary_label": "Total",
                    "legend": "The number of actions, including app installs, credit spends and uses, that were recorded as app events and attributed to your adverts.",
                    "width": 100
                },
                "cost_per_app_install": {
                    "field": "cost_per_app_install",
                    "name": "Cost per App Install",
                    "summary_label": "Total",
                    "legend": "The average cost for each desktop app install.",
                    "width": 100
                },
                "cost_per_app_engagement": {
                    "field": "cost_per_app_engagement",
                    "name": "Cost per App Engagement",
                    "summary_label": "Total",
                    "legend": "The average cost for each desktop app engagement.",
                    "width": 100
                },
                "click_all": {
                    "field": "click_all",
                    "name": "Click all",
                    "summary_label": "Total",
                    "legend": "The number of clicks on your ads.",
                    "width": 100
                },
                "unique_clicks_all": {
                    "field": "unique_clicks_all",
                    "name": "Unique clicks (all)",
                    "summary_label": "Total",
                    "legend": "The number of people who performed a click (all).",
                    "width": 100
                },
                "ctr_all": {
                    "field": "ctr_all",
                    "name": "CTR (all)",
                    "summary_label": "Total",
                    "legend": "The percentage of times people saw your ad and performed a click (all).",
                    "width": 100
                },
                "unique_ctr_all": {
                    "field": "unique_ctr_all",
                    "name": "Unique CTR (all)",
                    "summary_label": "Total",
                    "legend": "The percentage of people who saw your ad and performed a unique click (all).",
                    "width": 100
                },
                "cost_per_k_reached": {
                    "field": "cost_per_k_reached",
                    "name": "Cost per 1k people reached",
                    "summary_label": "Total",
                    "legend": "The average cost to reach 1,000 people.",
                    "width": 100
                },
                "cpc_all": {
                    "field": "cpc_all",
                    "name": "CPC (all)",
                    "summary_label": "Total",
                    "legend": "The average cost for each unique click (all).",
                    "width": 100
                },
                "cost_per_unique_click_all": {
                    "field": "cost_per_unique_click_all",
                    "name": "Cost per unique click (all)",
                    "summary_label": "Total",
                    "legend": "The average cost for each unique click (all).",
                    "width": 100
                },
                "actions": {
                    "field": "actions",
                    "name": "Actions",
                    "summary_label": "Total",
                    "legend": "The total number of actions people took that are attributed to your adverts. Actions may include engagement, clicks or conversions.",
                    "width": 100
                },
                "ctr_link": {
                    "field": "ctr_link",
                    "name": "CTR (Link)",
                    "summary_label": "Total",
                    "legend": "The percentage of times people saw your advert and performed a link click.",
                    "width": 100
                },
                "leads": {
                    "field": "leads",
                    "name": "Leads",
                    "summary_label": "Total",
                    "legend": "The number of lead events tracked by the conversion-tracking pixel on your website, attributed to your adverts.",
                    "width": 100
                },
                "key_web_page_views": {
                    "field": "key_web_page_views",
                    "name": "Key web page views (conversion tracking pixel)",
                    "summary_label": "Total",
                    "legend": "The number of key page view events tracked by the conversion-tracking pixel on your website, attributed to your adverts.",
                    "width": 100
                },
                "other_website_conversions": {
                    "field": "other_website_conversions",
                    "name": "Other website conversions (conversion-tracking pixel)",
                    "summary_label": "Total",
                    "legend": "The number of other types of events tracked by the conversion-tracking pixel on your website and attributed to your adverts.",
                    "width": 100
                },
                "registrations": {
                    "field": "registrations",
                    "name": "Registrations (converstion tracking pixel)",
                    "summary_label": "Total",
                    "legend": "The number of registration events tracked by the conversion-tracking pixel on your website and attributed to your adverts.",
                    "width": 100
                },
                "add_to_basket_actions": {
                    "field": "add_to_basket_actions",
                    "name": "Add-to-basket actions (conversion tracking pixel)",
                    "summary_label": "Total",
                    "legend": "The number of add to basket events tracked by the conversion-tracking pixel on your website and attributed to your adverts.",
                    "width": 100
                },
                "checkouts": {
                    "field": "checkouts",
                    "name": "Checkouts (conversion tracking pixel)",
                    "summary_label": "Total",
                    "legend": "The number of checkout events tracked by the conversion-tracking pixel on your website, attributed to your adverts.",
                    "width": 100
                },
                "cost_per_other_website_conversion": {
                    "field": "cost_per_other_website_conversion",
                    "name": "Cost per other website conversion (conversion-tracking pixel)",
                    "summary_label": "Total",
                    "legend": "The average cost for each other website conversion (conversion tracking pixel).",
                    "width": 100
                },
                "cost_per_key_web_page_view": {
                    "field": "cost_per_key_web_page_view",
                    "name": "Cost per key web page view (conversion tracking pixel)",
                    "summary_label": "Total",
                    "legend": "The average cost for each key web page view (conversion-tracking pixel).",
                    "width": 100
                },
                "cost_per_registration": {
                    "field": "cost_per_registration",
                    "name": "Cost per registration (conversion tracking pixel)",
                    "summary_label": "Total",
                    "legend": "The average cost for each registration (conversion tracking pixel).",
                    "width": 100
                },
                "cost_per_add_to_basket": {
                    "field": "cost_per_add_to_basket",
                    "name": "Cost per add to basket (conversion tracking pixel)",
                    "summary_label": "Total",
                    "legend": "The average cost for each add to basket (conversion tracking pixel).",
                    "width": 100
                },
                "cost_per_checkout": {
                    "field": "cost_per_checkout",
                    "name": "Cost per checkout (conversion tracking pixel)",
                    "summary_label": "Total",
                    "legend": "The average cost for each checkout (conversion tracking pixel).",
                    "width": 100
                },
                "cost_per_result": {
                    "field": "cost_per_result",
                    "name": "Cost per result",
                    "summary_label": "Total",
                    "legend": "The average cost per result from your adverts.",
                    "width": 100
                },
                "cpc_cost_per_link_click": {
                    "field": "cpc_cost_per_link_click",
                    "name": "The average cost for each link click.",
                    "summary_label": "Total",
                    "legend": "The average cost for each link click.",
                    "width": 100
                },
                "ctr_link_click_through_rate": {
                    "field": "ctr_link_click_through_rate",
                    "name": "CTR (link click-through rate)",
                    "summary_label": "Total",
                    "legend": "The percentage of times people saw your advert and performed a link click.",
                    "width": 100
                },
                "website_purchases": {
                    "field": "website_purchases",
                    "name": "Website purchases",
                    "summary_label": "Total",
                    "legend": "The number of purchase events tracked by the pixel on your website and attributed to your adverts.",
                    "width": 100
                },
                "reporting_starts": {
                    "field": "reporting_starts",
                    "name": "Reporting starts",
                    "summary_label": "Total",
                    "legend": "The start date for your data. This is controlled by the date range that you've selected for your reporting view.",
                    "width": 100
                },
                "reporting_ends": {
                    "field": "reporting_ends",
                    "name": "Reporting Ends",
                    "summary_label": "Total",
                    "legend": "The end date for your data. This is controlled by the date range that you've selected for your reporting view.",
                    "width": 100
                },
                "website_conversions": {
                    "field": "website_conversions",
                    "name": "Website conversions",
                    "summary_label": "Total",
                    "legend": "The number of events or conversions recorded by the pixel on your website and attributed to your adverts.",
                    "width": 100
                },
                "website_conversion_value": {
                    "field": "website_conversion_value",
                    "name": "Website conversion value",
                    "summary_label": "Total",
                    "legend": "The total value of website action (all) conversions.",
                    "width": 100
                },
                "cost_per_website_conversion": {
                    "field": "cost_per_website_conversion",
                    "name": "Cost per website conversion",
                    "summary_label": "Total",
                    "legend": "The average cost of each website action (all).",
                    "width": 100
                },
                "messaging_replies": {
                    "field": "messaging_replies",
                    "name": "Messaging replies",
                    "summary_label": "Total",
                    "legend": "The number of messaging replies that people sent to your business, attributed to your adverts.",
                    "width": 100
                },
                "blocked_message_conversion": {
                    "field": "blocked_message_conversion",
                    "name": "Blocked message conversion",
                    "summary_label": "Total",
                    "legend": "The number of times that people blocked a messaging conversation with your business, attributed to your adverts.",
                    "width": 100
                },




                "offline_purchases": {
                    "field": "offline_purchases",
                    "name": "Offline Purchase",
                    "summary_label": "Total",
                    "legend": "The number of purchase events that were recorded by your offline events data and attributed to your adverts.",
                    "width": 100
                },
                "offline_purchases_conversion_value": {
                    "field": "offline_purchases_conversion_value",
                    "name": "Offline purchases conversion value",
                    "summary_label": "Total",
                    "legend": "The total value returned from purchase (offline conversion) conversions. This is based on the value you assigned when you set up the offline event.",
                    "width": 100
                },
                "cost_per_offline_purchase": {
                    "field": "cost_per_offline_purchase",
                    "name": "Cost per offline purchase",
                    "summary_label": "Total",
                    "legend": "The average cost for each purchase (offline conversion).",
                    "width": 100
                },
                "offline_leads": {
                    "field": "offline_leads",
                    "name": "Offline leads",
                    "summary_label": "Total",
                    "legend": "",
                    "width": 100
                },
                "cost_per_offline_leads": {
                    "field": "cost_per_offline_leads",
                    "name": "Cost per offline leads",
                    "summary_label": "Total",
                    "legend": "The number of lead events that were recorded by your offline events data and attributed to your adverts.",
                    "width": 100
                },
                "other_offline_conversions": {
                    "field": "other_offline_conversions",
                    "name": "Other offline conversions",
                    "summary_label": "Total",
                    "legend": "",
                    "width": 100
                },
                "cost_per_other_offline_conversions": {
                    "field": "cost_per_other_offline_conversions",
                    "name": "Cost per other offline conversions",
                    "summary_label": "Total",
                    "legend": "",
                    "width": 100
                }
            },
            "performance": [
                "delivery",
                "results",
                "reach",
                "cost",
                "amount_spent",
                "ends",
                "link_clicks",
                "purchase",
                "mobile_app_purchases"
            ],
            "delivery": [
                "delivery",
                "reach",
                "frequency",
                "cost_per_k_reached",
                "impressions",
                "cpm_per_k_impressions"
            ],
            "engagement": [
                "people_taking_action",
                "post_reactions",
                "post_comments",
                "post_shares",
                "link_clicks",
                "page_likes"
            ],
            "video_engagement": [
                "impressions",
                "three_second_video_views",
                "ten_second_video_views",
                "cost_per_ten_second_video_view",
                "reach",
                "amount_spent",
                "video_percentage_watched",
                "video_watches_at_25_perc",
                "video_watches_at_50_perc",
                "video_watches_at_75_perc",
                "video_watches_at_95_perc",
                "video_watches_at_100_perc"
            ],
            "app_engagement": [
                "delivery",
                "mobile_app_installs",
                "mobile_app_actions",
                "cost_per_mobile_app_install",
                "cost_per_mobile_app_action",
                "app_installs",
                "app_engagement",
                "cost_per_app_install",
                "cost_per_app_engagement",
                "post_reactions",
                "post_comments",
                "post_shares"
            ],
            "carousel_engagement": [
                "delivery",
                "reach",
                "impressions",
                "click_all",
                "unique_clicks_all",
                "ctr_all",
                "unique_ctr_all",
                "amount_spent",
                "cpm_per_k_impressions",
                "cost_per_k_reached",
                "cpc_all",
                "cost_per_unique_click_all",
                "actions",
                "people_taking_action",
                "link_clicks",
                "ctr_link",
                "mobile_app_installs",
                "leads",
                "key_web_page_views",
                "other_website_conversions",
                "registrations",
                "add_to_basket_actions",
                "checkouts",
                "cost_per_mobile_app_install",
                "cost_per_lead",
                "cost_per_key_web_page_view",
                "cost_per_other_website_conversion",
                "cost_per_registration",
                "cost_per_add_to_basket",
                "cost_per_checkout"
            ],
            "performance_and_clicks": [
                "delivery",
                "results",
                "reach",
                "frequency",
                "cost_per_result",
                "amount_spent",
                "ends",
                "click_all",
                "ctr_all",
                "cpc_all",
                "impressions",
                "cpm",
                "link_clicks",
                "cpc_cost_per_link_click",
                "ctr_link_click_through_rate",
                "website_purchases",
                "mobile_app_purchases"
            ],
            "crosss-device": [
                "reporting_starts",
                "reporting_ends",
                "website_conversions",
                "mobile_app_installs",
                "website_conversion_value",
                "cost_per_website_conversion",
                "cost_per_mobile_app_install"
            ],
            "messenger_engagement": [
                "delivery",
                "impressions",
                "link_clicks",
                "messaging_replies",
                "blocked_message_conversion"
            ],
            "offline_conversions": [
                "results",
                "reach",
                "amount_spent",
                "offline_purchases",
                "offline_purchases_conversion_value",
                "cost_per_offline_purchase",
                "offline_leads",
                "cost_per_offline_leads",
                "other_offline_conversions",
                "cost_per_other_offline_conversions"
            ]
        }
    },
    "filters_options_available": {
        "1": {
            "1": {
                "id": "1",
                "field": "campaign_group.delivery_info",
                "op": "in",
                "type": "enum",
                "name": "Active",
                "value": ["active"]
            },
            "2": {
                "id": "2",
                "field": "campaign_group.delivery_info",
                "op": "in",
                "type": "enum",
                "name": "Deleted",
                "value": ["permanently_deleted"]
            },
            "3": {
                "id": "3",
                "field": "campaign_group.delivery_info",
                "op": "in",
                "type": "enum",
                "name": "Scheduled",
                "value": ["scheduled"]
            },
            "4": {
                "id": "4",
                "field": "campaign_group.delivery_info",
                "op": "in",
                "type": "enum",
                "name": "Pending Review",
                "value": ["pending_review"]
            },
            "5": {
                "id": "5",
                "field": "campaign_group.delivery_info",
                "op": "in",
                "type": "enum",
                "name": "Not approved",
                "value": ["recently_rejected"]
            },
            "6": {
                "id": "6",
                "field": "campaign_group.delivery_info",
                "op": "in",
                "type": "enum",
                "name": "Inactive",
                "value": ["inactive"]
            },
            "7": {
                "id": "7",
                "field": "campaign_group.delivery_info",
                "op": "in",
                "type": "enum",
                "name": "Not delivering",
                "value": ["not_delivering"]
            },
            "8": {
                "id": "8",
                "field": "campaign_group.delivery_info",
                "type": "enum",
                "op": "in",
                "name": "Completed",
                "value": ["completed"]
            },
            "9": {
                "id": "9",
                "field": "campaign_group.delivery_info",
                "type": "enum",
                "op": "in",
                "name": "Archived",
                "value": ["archived"]
            },
            "10": {
                "id": "10",
                "field": "campaign_group.delivery_info",
                "type": "enum",
                "op": "in",
                "name": "Limited",
                "value": ["limited"]
            },
            "11": {
                "id": "11",
                "field": "campaign_group.delivery_info",
                "type": "enum",
                "op": "in",
                "name": "Not Published",
                "value": ["not_published"]
            },
            "12": {
                "id": "12",
                "field": "campaign_group.delivery_info",
                "type": "enum",
                "op": "in",
                "name": "Rejected",
                "value": ["rejected"]
            },

            "13": {
                "id": "13",
                "field": "campaign_group.objective",
                "type": "enum",
                "op": "in",
                "name": "App Engagement",
                "value": ["CANVAS_APP_ENGAGEMENT", "MOBILE_APP_ENGAGEMENT"]
            },
            "14": {
                "id": "14",
                "field": "campaign_group.objective",
                "type": "enum",
                "op": "in",
                "name": "App Installs",
                "value": ["APP_INSTALLS", "CANVAS_APP_INSTALLS", "MOBILE_APP_INSTALLS"]
            },
            "15": {
                "id": "15",
                "field": "campaign_group.objective",
                "type": "enum",
                "op": "in",
                "name": "Brand Awareness",
                "value": ["BRAND_AWARENESS"]
            },
            "16": {
                "id": "16",
                "field": "campaign_group.objective",
                "type": "enum",
                "op": "in",
                "name": "Conversions",
                "value": ["CONVERSIONS"]
            },
            "17": {
                "id": "17",
                "field": "campaign_group.objective",
                "type": "enum",
                "op": "in",
                "name": "Event Responses",
                "value": ["EVENT_RESPONSES"]
            },
            "18": {
                "id": "18",
                "field": "campaign_group.objective",
                "type": "enum",
                "op": "in",
                "name": "Lead Generation",
                "value": ["LEAD_GENERATION"]
            },
            "19": {
                "id": "19",
                "field": "campaign_group.objective",
                "type": "enum",
                "op": "in",
                "name": "Local Awareness",
                "value": ["LOCAL_AWARENESS"]
            },
            "20": {
                "id": "20",
                "field": "campaign_group.objective",
                "type": "enum",
                "op": "in",
                "name": "Offer Claims",
                "value": ["OFFER_CLAIMS"]
            },
            "21": {
                "id": "21",
                "field": "campaign_group.objective",
                "type": "enum",
                "op": "in",
                "name": "Page Likes",
                "value": ["PAGE_LIKES"]
            },
            "22": {
                "id": "22",
                "field": "campaign_group.objective",
                "type": "enum",
                "op": "in",
                "name": "Post Engagement",
                "value": ["POST_ENGAGEMENT"]
            },
            "23": {
                "id": "23",
                "field": "campaign_group.objective",
                "type": "enum",
                "op": "in",
                "name": "Product Catalogue Sales",
                "value": ["PRODUCT_CATALOG_SALES"]
            },
            "24": {
                "id": "24",
                "field": "campaign_group.objective",
                "type": "enum",
                "op": "in",
                "name": "Traffic",
                "value": ["LINK_CLICKS"]
            },
            "25": {
                "id": "25",
                "field": "campaign_group.objective",
                "type": "enum",
                "op": "in",
                "name": "Video Views",
                "value": ["VIDEO_VIEWS"]
            },


            "26": {
                "id": "26",
                "field": "campaign_group.buying_type",
                "type": "enum",
                "op": "in",
                "name": "Auction",
                "value": ["AUCTION"]
            },
            "27": {
                "id": "27",
                "field": "campaign_group.buying_type",
                "type": "enum",
                "op": "in",
                "name": "Fixed Price",
                "value": ["FIXED_PRICE"]
            },
            "28": {
                "id": "28",
                "field": "campaign_group.buying_type",
                "type": "enum",
                "op": "in",
                "name": "Reach and Frequency",
                "value": ["RESERVED"]
            },


            "29": {
                "id": "29",
                "field": "campaign_group.adset.placement.page_types",
                "type": "enum",
                "op": "in",
                "name": "Facebook feeds (desktop)",
                "value": ["desktopfeed"]
            },
            "30": {
                "id": "30",
                "field": "campaign_group.adset.placement.page_types",
                "type": "enum",
                "op": "in",
                "name": "Facebook feeds (mobile)",
                "value": ["mobilefeed"]
            },
            "31": {
                "id": "31",
                "field": "campaign_group.adset.placement.page_types",
                "type": "enum",
                "op": "in",
                "name": "Instagran",
                "value": ["instagramstream"]
            },
            "32": {
                "id": "32",
                "field": "campaign_group.adset.placement.page_types",
                "type": "enum",
                "op": "in",
                "name": "Audience Network",
                "value": ["rightcolumn"]
            },


            "33": {
                "id": "33",
                "field":"campaign_group.cost_per_result",
                "type": "text",
                "op": "contains",
                "name": "Cost per Result",
                "value": ""
            },
            "34": {
                "id": "34",
                "field":"campaign_group.cpa",
                "type": "text",
                "op": "contains",
                "name": "CPA",
                "value": ""
            },
            "35": {
                "id": "35",
                "field":"campaign_group.cpm",
                "type": "text",
                "op": "contains",
                "name": "CPM",
                "value": ""
            },
            "36": {
                "id": "36",
                "field":"campaign_group.frequency",
                "type": "text",
                "op": "contains",
                "name": "Frequency",
                "value": ""
            },
            "37": {
                "id": "37",
                "field":"campaign_group.impressions",
                "type": "text",
                "op": "contains",
                "name": "Impressions",
                "value": ""
            },
            "38": {
                "id": "38",
                "field":"campaign_group.lifetime_spent",
                "type": "text",
                "op": "contains",
                "name": "Lifetime spent",
                "value": ""
            },
            "39": {
                "id": "39",
                "field":"campaign_group.reach",
                "type": "text",
                "op": "contains",
                "name": "Reach",
                "value": ""
            },
            "40": {
                "id": "40",
                "field":"campaign_group.result",
                "type": "text",
                "op": "contains",
                "name": "Result",
                "value": ""
            },

            "41": {
                "id": "41",
                "field": "campaign_group.updated_time",
                "type": "date",
                "op": "great",
                "name": "Last Change",
                "value": ""
            },


            "42": {
                "id": "42",
                "field": "campaign_group.name",
                "type": "text",
                "op": "contains",
                "name": "Campaign name",
                "value": ""
            },

            "43": {
                "id": "43",
                "field": "campaign_group.descendants",
                "type": "compose",
                "op": "contains",
                "name": "Advert Set Name",
                "value": {"field":"campaign.name","op":"contains","value":""}
            },
            "44": {
                "id": "44",
                "field": "campaign_group.descendants",
                "type": "compose",
                "op": "contains",
                "name": "Advert Name",
                "value": {"field":"adgroup.name","op":"contains","value":""}
            }
        }
    },
    "stack_filters": {
        "1": {}
    },
    "filters_available": {
        "1": {
            "ads_accounts": [
                {
                    "field": "saved_filters",
                    "name": "Saved Filters",
                    "filters": [
                        {
                            "id": 9274629183747,
                            "name": "Custom Filter Report",
                            "type": "stack",
                            "filters": {"delivery":{"2":{"id":"2","field":"delivery","op":"is","type":"enum","name":"Deleted","value":"deleted"}},"campaign_in_all":{"13":{"id":"13","field":"campaign_in_all","type":"text","op":"contains","name":"All fields","value":"sasas"}}}
                        }
                    ]
                },
                {
                    "field": "delivery",
                    "name": "Delivery",
                    "filters": [1,2,3,4,5,6,7]
                },
                {
                    "field": "campaign",
                    "name": "Campaign",
                    "filters": [11,12,13]
                },
                {
                    "field": "objective",
                    "name": "Objective",
                    "filters": [8,9,10]
                },
                {
                    "field": "last_change",
                    "name": "Last Change",
                    "filters": [12,13]
                },
                {
                    "field": "latest_filters",
                    "name": "Latest Filters",
                    "filters": []
                }
            ],
            "ads_group": [
                {
                    "field": "Filters",
                    "name": "Filters"
                },
                {
                    "field": "saved_filters",
                    "name": "Saved Filters"
                },
                {
                    "field": "campaign",
                    "name": "Campaign name",
                    "filters": [42,43,44]
                },
                {
                    "field": "delivery",
                    "name": "Delivery",
                    "filters": [1,2,3,4,5,6,7,8,9,10,11,12]
                },
                {
                    "field": "objective",
                    "name": "Objective",
                    "filters": [13,14,15,16,17,18,19,20,21,22,23,24,25]
                },
                {
                    "field": "buying_type",
                    "name": "Buying Type",
                    "filters": [26,27,28]
                },
                {
                    "field": "placement",
                    "name": "Placement",
                    "filters": [29,30,31,32]
                },
                {
                    "field": "metrics",
                    "name": "Metrics",
                    "filters": [33,34,35,36,37,38,39,40]
                },
                {
                    "field": "date_updated",
                    "name": "Date Updated",
                    "filters": [41]
                }
            ],
            "ads_set": [
                {
                    "field": "Filters",
                    "name": "Filters"
                },
                {
                    "field": "saved_filters",
                    "name": "Saved Filters"
                },
                {
                    "field": "campaign",
                    "name": "Campaign name",
                    "filters": [42,43,44]
                },
                {
                    "field": "delivery",
                    "name": "Delivery",
                    "filters": [1,2,3,4,5,6,7,8,9,10,11,12]
                },
                {
                    "field": "objective",
                    "name": "Objective",
                    "filters": [13,14,15,16,17,18,19,20,21,22,23,24,25]
                },
                {
                    "field": "buying_type",
                    "name": "Buying Type",
                    "filters": [26,27,28]
                },
                {
                    "field": "placement",
                    "name": "Placement",
                    "filters": [29,30,31,32]
                },
                {
                    "field": "metrics",
                    "name": "Metrics",
                    "filters": [33,34,35,36,37,38,39,40]
                },
                {
                    "field": "date_updated",
                    "name": "Date Updated",
                    "filters": [41]
                }
            ],
            "campaigns": [
                {
                    "field": "Filters",
                    "name": "Filters"
                },
                {
                    "field": "saved_filters",
                    "name": "Saved Filters"
                },
                {
                    "field": "campaign",
                    "name": "Campaign name",
                    "filters": [42,43,44]
                },
                {
                    "field": "delivery",
                    "name": "Delivery",
                    "filters": [1,2,3,4,5,6,7,8,9,10,11,12]
                },
                {
                    "field": "objective",
                    "name": "Objective",
                    "filters": [13,14,15,16,17,18,19,20,21,22,23,24,25]
                },
                {
                    "field": "buying_type",
                    "name": "Buying Type",
                    "filters": [26,27,28]
                },
                {
                    "field": "placement",
                    "name": "Placement",
                    "filters": [29,30,31,32]
                },
                {
                    "field": "metrics",
                    "name": "Metrics",
                    "filters": [33,34,35,36,37,38,39,40]
                },
                {
                    "field": "date_updated",
                    "name": "Date Updated",
                    "filters": [41]
                }
            ]
        }
    }
}
